<?xml version="1.0" encoding="utf-8"?>
<!-- Generator: Adobe Illustrator 24.3.0, SVG Export Plug-In . SVG Version: 6.00 Build 0)  -->
<svg version="1.1" id="レイヤー_1" xmlns="http://www.w3.org/2000/svg" xmlns:xlink="http://www.w3.org/1999/xlink" x="0px"
	 y="0px" viewBox="0 0 240.94 283.46" style="enable-background:new 0 0 240.94 283.46;" xml:space="preserve">
<style type="text/css">
	.tower, .blades, .base{
	  fill:red;
	  stroke:#040000;
	  stroke-width:5;
	  stroke-miterlimit:10;
	 }
	.base{
	  stroke-width:10;
	  }
</style>
<g>

	<polyline class="tower" points="126.05,127.52 135.15,269.8 135.15,269.8 149.95,269.8 149.95,283.46 90.76,283.46 90.76,269.8 
		105.56,269.8 114.66,127.52 	"/>
	<path class="blades" d="M121.49,118.41C111.25,126.38,65.72,9.13,79.37,4.58C132.88-11.36,136.29,109.3,121.49,118.41L121.49,118.41z"
		/>
	<path class="blades" d="M120.35,120.69c-1.14-13.66,122.94,6.83,119.52,19.35C227.35,194.68,121.49,136.62,120.35,120.69
		L120.35,120.69z"/>
	<path class="blades" d="M119.22,118.41c11.38,6.83-68.3,103.59-77.4,94.48C0.83,174.19,103.28,111.58,119.22,118.41L119.22,118.41z"/>
	<path class="blades" d="M129.46,120.69c-1.14,4.55-5.69,7.97-10.24,6.83c-5.69-1.14-9.11-5.69-7.97-10.24s5.69-7.97,10.24-6.83
		C127.18,110.44,130.6,115,129.46,120.69L129.46,120.69z"/>
	<line class="base" x1="85.04" y1="283.07" x2="155.91" y2="283.07"/>
	<line class="base" x1="120.47" y1="283.07" x2="120.47" y2="268.89"/>
</g>
</svg>
