[
  {
    "LW_lib_id": "Unknown(Ishikari-Offshore)-8.0-LF",
    "manufacturer": "Unknown",
    "model": "Unknown",
    "epower": 8000,
    "LW_note": "石狩湾新港洋上風力発電（評価書）",
    "hub_height": 112.3,
    "freq_band": "1/3oct",
    "freq_weight": "flat",
    "LW_data": [
      {"freq":    1   ,  "LW": 136.8},
      {"freq":    1.25,  "LW": 134.2},
      {"freq":    1.6 ,  "LW": 133.5},
      {"freq":    2.0 ,  "LW": 132.8},
      {"freq":    2.5 ,  "LW": 130.2},
      {"freq":    3.15,  "LW": 129.5},
      {"freq":    4.0 ,  "LW": 128.8},
      {"freq":    5.0 ,  "LW": 126.2},
      {"freq":    6.3 ,  "LW": 125.5},
      {"freq":    8.0 ,  "LW": 124.8},
      {"freq":   10.0 ,  "LW": 122.2},
      {"freq":   12.5 ,  "LW": 121.5},
      {"freq":   16.0 ,  "LW": 120.8},
      {"freq":   20.0 ,  "LW": 120.1},
      {"freq":   25.0 ,  "LW": 119.2},
      {"freq":   31.5 ,  "LW": 117.4},
      {"freq":   40.0 ,  "LW": 116.8},
      {"freq":   50.0 ,  "LW": 115.5},
      {"freq":   63.0 ,  "LW": 114.6},
      {"freq":   80.0 ,  "LW": 115.3},
      {"freq":  100.0 ,  "LW": 109.5},
      {"freq":  125.0 ,  "LW": 106.7},
      {"freq":  160.0 ,  "LW": 105.0},
      {"freq":  200.0 ,  "LW": 105.1}
    ]
  },
  {
    "LW_lib_id": "Unknown(Ishikari-Offshore)-8.0-MF",
    "manufacturer": "Unknown",
    "model": "Unknown",
    "epower": 8000,
    "LW_note": "石狩湾新港洋上風力発電（評価書）",
    "hub_height": 112.3,
    "freq_band": "1/1oct",
    "freq_weight": "flat",
    "LW_data": [
      {"freq":   63.0 ,  "LW": 119.9},
      {"freq":  125.0 ,  "LW": 112.2},
      {"freq":  250.0 ,  "LW": 109.9},
      {"freq":  500.0 ,  "LW": 107.2},
      {"freq": 1000.0 ,  "LW": 107.4},
      {"freq": 2000.0 ,  "LW": 108.1},
      {"freq": 4000.0 ,  "LW": 103.6},
      {"freq": 8000.0 ,  "LW":  93.7}
    ]
  },
  {
    "LW_lib_id": "Unknown(Ishikari-Offshore)-4.0-LF",
    "manufacturer": "Unknown",
    "model": "Unknown",
    "epower": 4000,
    "LW_note": "石狩湾新港洋上風力発電（評価書）",
    "hub_height": 100,
    "freq_band": "1/3oct",
    "freq_weight": "flat",
    "LW_data": [
      {"freq":    1   ,  "LW": 153.8},
      {"freq":    1.25,  "LW": 150.9},
      {"freq":    1.6 ,  "LW": 148.4},
      {"freq":    2.0 ,  "LW": 145.5},
      {"freq":    2.5 ,  "LW": 142.7},
      {"freq":    3.15,  "LW": 139.9},
      {"freq":    4.0 ,  "LW": 137.3},
      {"freq":    5.0 ,  "LW": 134.5},
      {"freq":    6.3 ,  "LW": 131.7},
      {"freq":    8.0 ,  "LW": 129.0},
      {"freq":   10.0 ,  "LW": 128.1},
      {"freq":   12.5 ,  "LW": 122.9},
      {"freq":   16.0 ,  "LW": 118.9},
      {"freq":   20.0 ,  "LW": 116.5},
      {"freq":   25.0 ,  "LW": 115.5},
      {"freq":   31.5 ,  "LW": 113.8},
      {"freq":   40.0 ,  "LW": 113.1},
      {"freq":   50.0 ,  "LW": 111.7},
      {"freq":   63.0 ,  "LW": 110.7},
      {"freq":   80.0 ,  "LW": 111.1},
      {"freq":  100.0 ,  "LW": 110.1},
      {"freq":  125.0 ,  "LW": 109.8},
      {"freq":  160.0 ,  "LW": 108.3},
      {"freq":  200.0 ,  "LW": 105.5}
    ]
  },
  {
    "LW_lib_id": "Unknown(Ishikari-Offshore)-4.0-MF",
    "manufacturer": "Unknown",
    "model": "Unknown",
    "epower": 4000,
    "LW_note": "石狩湾新港洋上風力発電（評価書）",
    "hub_height": 100,
    "freq_band": "1/1oct",
    "freq_weight": "flat",
    "LW_data": [
      {"freq":   63.0 ,  "LW": 116.8},
      {"freq":  125.0 ,  "LW": 114.4},
      {"freq":  250.0 ,  "LW": 108.9},
      {"freq":  500.0 ,  "LW": 107.6},
      {"freq": 1000.0 ,  "LW": 105.6},
      {"freq": 2000.0 ,  "LW": 100.0},
      {"freq": 4000.0 ,  "LW":  95.4},
      {"freq": 8000.0 ,  "LW":  88.0}
    ]
  },
  {
    "LW_lib_id": "Siemens-SWT-167-8.0-LF",
    "manufacturer": "Siemens",
    "model": "SWT 167",
    "epower": 8000,
    "LW_note": "Vesterhav Syd Wind Farm (Noise Impact Assessment 135 07/02/2019) https://ens.dk/sites/ens.dk/files/Vindenergi/baggrundsrapport_-_vhs_stoejberegning.pdf",
    "hub_height": 109,
    "freq_band": "1/3oct",
    "freq_weight": "flat",
    "LW_data": [
      {"freq":   10.0 ,  "LW": 121.0},
      {"freq":   12.5 ,  "LW": 120.5},
      {"freq":   16.0 ,  "LW": 119.8},
      {"freq":   20.0 ,  "LW": 119.1},
      {"freq":   25.0 ,  "LW": 119.1},
      {"freq":   31.5 ,  "LW": 117.4},
      {"freq":   40.0 ,  "LW": 116.4},
      {"freq":   50.0 ,  "LW": 115.0},
      {"freq":   63.0 ,  "LW": 113.3},
      {"freq":   80.0 ,  "LW": 114.8},
      {"freq":  100.0 ,  "LW": 109.1},
      {"freq":  125.0 ,  "LW": 108.0},
      {"freq":  160.0 ,  "LW": 105.9}
    ]
  },
  {
    "LW_lib_id": "Siemens-SWT-167-8.0-MF",
    "manufacturer": "Siemens",
    "model": "SWT 167",
    "epower": 8000,
    "LW_note": "Vesterhav Syd Wind Farm (Noise Impact Assessment 135 07/02/2019) https://ens.dk/sites/ens.dk/files/Vindenergi/baggrundsrapport_-_vhs_stoejberegning.pdf",
    "hub_height": 109,
    "freq_band": "1/1oct",
    "freq_weight": "flat",
    "LW_data": [
      {"freq":   63.0 ,  "LW": 120.2},
      {"freq":  125.0 ,  "LW": 112.5},
      {"freq":  250.0 ,  "LW": 108.1},
      {"freq":  500.0 ,  "LW": 106.2},
      {"freq": 1000.0 ,  "LW": 106.0},
      {"freq": 2000.0 ,  "LW": 106.2},
      {"freq": 4000.0 ,  "LW": 100.6},
      {"freq": 8000.0 ,  "LW":  83.7}
    ]
  },
  {
    "LW_lib_id": "Unknown(Gotou-Offshore)-2.1-LF",
    "manufacturer": "Unknown",
    "model": "Unknown",
    "epower": 2100,
    "LW_note": "五島市沖洋上風力（評価書） http://assess.env.go.jp/2_jirei/2-5_toshokokai/publishdetail.html?id=12",
    "hub_height": 56,
    "freq_band": "1/3oct",
    "freq_weight": "flat",
    "LW_data": [
      {"freq":    1   ,  "LW": 124.0},
      {"freq":    1.25,  "LW": 122.0},
      {"freq":    1.6 ,  "LW": 126.0},
      {"freq":    2.0 ,  "LW": 127.0},
      {"freq":    2.5 ,  "LW": 127.0},
      {"freq":    3.15,  "LW": 126.0},
      {"freq":    4.0 ,  "LW": 124.0},
      {"freq":    5.0 ,  "LW": 125.0},
      {"freq":    6.3 ,  "LW": 124.0},
      {"freq":    8.0 ,  "LW": 124.0},
      {"freq":   10.0 ,  "LW": 120.0},
      {"freq":   12.5 ,  "LW": 118.0},
      {"freq":   16.0 ,  "LW": 117.0},
      {"freq":   20.0 ,  "LW": 114.0},
      {"freq":   25.0 ,  "LW": 114.0},
      {"freq":   31.5 ,  "LW": 116.0},
      {"freq":   40.0 ,  "LW": 111.0},
      {"freq":   50.0 ,  "LW": 112.0},
      {"freq":   63.0 ,  "LW": 112.0},
      {"freq":   80.0 ,  "LW": 110.0},
      {"freq":  100.0 ,  "LW": 107.0},
      {"freq":  125.0 ,  "LW": 102.0},
      {"freq":  160.0 ,  "LW": 102.0},
      {"freq":  200.0 ,  "LW":  99.0}
    ]
  },
  {
    "LW_lib_id": "Unknown(Gotou-Offshore)-2.1-MF",
    "manufacturer": "Unknown",
    "model": "Unknown",
    "epower": 2100,
    "LW_note": "五島市沖洋上風力（評価書） http://assess.env.go.jp/2_jirei/2-5_toshokokai/publishdetail.html?id=12",
    "hub_height": 53,
    "freq_band": "1/1oct",
    "freq_weight": "flat",
    "LW_data": [
      {"freq":   63.0 ,  "LW": 117.2},
      {"freq":  125.0 ,  "LW": 109.1},
      {"freq":  250.0 ,  "LW": 102.6},
      {"freq":  500.0 ,  "LW": 101.2},
      {"freq": 1000.0 ,  "LW":  97.0},
      {"freq": 2000.0 ,  "LW":  92.8},
      {"freq": 4000.0 ,  "LW":  78.0},
      {"freq": 8000.0 ,  "LW":  65.1}
    ]
  },
  {
    "LW_lib_id": "Unknown(Gotou-Offshore)-5.2-LF",
    "manufacturer": "Unknown",
    "model": "Unknown",
    "epower": 5200,
    "LW_note": "五島市沖洋上風力（評価書） http://assess.env.go.jp/2_jirei/2-5_toshokokai/publishdetail.html?id=12",
    "hub_height": 89.9,
    "freq_band": "1/3oct",
    "freq_weight": "flat",
    "LW_data": [
      {"freq":    1   ,  "LW": 124.0},
      {"freq":    1.25,  "LW": 123.0},
      {"freq":    1.6 ,  "LW": 120.0},
      {"freq":    2.0 ,  "LW": 119.0},
      {"freq":    2.5 ,  "LW": 121.0},
      {"freq":    3.15,  "LW": 120.0},
      {"freq":    4.0 ,  "LW": 119.0},
      {"freq":    5.0 ,  "LW": 119.0},
      {"freq":    6.3 ,  "LW": 118.0},
      {"freq":    8.0 ,  "LW": 118.0},
      {"freq":   10.0 ,  "LW": 113.0},
      {"freq":   12.5 ,  "LW": 111.0},
      {"freq":   16.0 ,  "LW": 110.0},
      {"freq":   20.0 ,  "LW": 110.0},
      {"freq":   25.0 ,  "LW": 112.0},
      {"freq":   31.5 ,  "LW": 108.0},
      {"freq":   40.0 ,  "LW": 107.0},
      {"freq":   50.0 ,  "LW": 114.0},
      {"freq":   63.0 ,  "LW": 108.0},
      {"freq":   80.0 ,  "LW": 104.0},
      {"freq":  100.0 ,  "LW": 109.0},
      {"freq":  125.0 ,  "LW": 108.0},
      {"freq":  160.0 ,  "LW": 108.0},
      {"freq":  200.0 ,  "LW": 109.0}
    ]
  },
  {
    "LW_lib_id": "Unknown(Gotou-Offshore)-5.2-MF",
    "manufacturer": "Unknown",
    "model": "Unknown",
    "epower": 5200,
    "LW_note": "五島市沖洋上風力（評価書） http://assess.env.go.jp/2_jirei/2-5_toshokokai/publishdetail.html?id=12",
    "hub_height": 89.9,
    "freq_band": "1/1oct",
    "freq_weight": "flat",
    "LW_data": [
      {"freq":   63.0 ,  "LW": 119.2},
      {"freq":  125.0 ,  "LW": 113.1},
      {"freq":  250.0 ,  "LW": 112.6},
      {"freq":  500.0 ,  "LW": 105.2},
      {"freq": 1000.0 ,  "LW": 101.0},
      {"freq": 2000.0 ,  "LW":  95.8},
      {"freq": 4000.0 ,  "LW":  89.0},
      {"freq": 8000.0 ,  "LW":  84.1}
    ]
  },
  {
    "LW_lib_id": "Enercon-E70-2.5-MF",
    "manufacturer": "Enercon",
    "model": "E70",
    "epower": 2500,
    "LW_note": "Meenbog Windfarm (EIA) https://www.pleanala.ie/en-ie/case/300460",
    "freq_band": "1/1oct",
    "freq_weight": "A",
    "LW_data": [
      {"freq":   63.0 ,  "LW":  89.6},
      {"freq":  125.0 ,  "LW":  96.2},
      {"freq":  250.0 ,  "LW":  99.2},
      {"freq":  500.0 ,  "LW":  99.4},
      {"freq": 1000.0 ,  "LW":  96.4},
      {"freq": 2000.0 ,  "LW":  93.4},
      {"freq": 4000.0 ,  "LW":  89.1},
      {"freq": 8000.0 ,  "LW":  84.8}
    ]
  },
  {
    "LW_lib_id": "Enercon-E136-EP5-4.65-MF",
    "manufacturer": "Enercon",
    "model": "E-136 EP5",
    "epower": 4650,
    "LW_note": "Barnesmore windfarm repowering (EIA) https://www.pleanala.ie/en-ie/case/306303",
    "hub_height": 109,
    "freq_band": "1/1oct",
    "freq_weight": "flat",
    "LW_data": [
      {"freq":   63.0 ,  "LW": 110.8},
      {"freq":  125.0 ,  "LW": 109.5},
      {"freq":  250.0 ,  "LW": 109.1},
      {"freq":  500.0 ,  "LW": 105.6},
      {"freq": 1000.0 ,  "LW": 100.9},
      {"freq": 2000.0 ,  "LW":  97.2},
      {"freq": 4000.0 ,  "LW":  92.3},
      {"freq": 8000.0 ,  "LW":  87.0}
    ]
  },
  {
    "LW_lib_id": "Enercon-E136-EP5-4.65-MF-2",
    "manufacturer": "Enercon",
    "model": "E-136 EP5",
    "epower": 4650,
    "LW_note": "Coom green energy park (EIAR) https://www.pleanala.ie/en-ie/case/308885",
    "hub_height": 109,
    "freq_band": "1/1oct",
    "freq_weight": "flat",
    "LW_data": [
      {"freq":   31.5 ,  "LW": 114.5},
      {"freq":   63.0 ,  "LW": 111.1},
      {"freq":  125.0 ,  "LW": 108.8},
      {"freq":  250.0 ,  "LW": 107.3},
      {"freq":  500.0 ,  "LW": 104.0},
      {"freq": 1000.0 ,  "LW": 100.4},
      {"freq": 2000.0 ,  "LW":  96.5},
      {"freq": 4000.0 ,  "LW":  91.4},
      {"freq": 8000.0 ,  "LW":  83.6}
    ]
  },
  {
    "LW_lib_id": "Enercon-E138-EP3-4.0-MF",
    "manufacturer": "Enercon",
    "model": "E-138 EP3",
    "epower": 4000,
    "LW_note": "Euchanhead Renewable Energy Development (ENA) https://www.scottishpowerrenewables.com/pages/euchanhead_renewable_energy_development.aspx",
    "freq_band": "1/1oct",
    "freq_weight": "flat",
    "LW_data": [
      {"freq":   63.0 ,  "LW": 116.0},
      {"freq":  125.0 ,  "LW": 111.8},
      {"freq":  250.0 ,  "LW": 107.0},
      {"freq":  500.0 ,  "LW": 103.6},
      {"freq": 1000.0 ,  "LW": 100.2},
      {"freq": 2000.0 ,  "LW":  96.6},
      {"freq": 4000.0 ,  "LW":  88.3},
      {"freq": 8000.0 ,  "LW":  67.4}
    ]
  },
  {
    "LW_lib_id": "Enercon-E115-EP3-4.0-MF",
    "manufacturer": "Enercon",
    "model": "E-115 EP3",
    "epower": 4000,
    "LW_note": "Euchanhead Renewable Energy Development (ENA) https://www.scottishpowerrenewables.com/pages/euchanhead_renewable_energy_development.aspx",
    "freq_band": "1/1oct",
    "freq_weight": "flat",
    "LW_data": [
      {"freq":   63.0 ,  "LW": 117.5},
      {"freq":  125.0 ,  "LW": 113.3},
      {"freq":  250.0 ,  "LW": 108.8},
      {"freq":  500.0 ,  "LW": 105.6},
      {"freq": 1000.0 ,  "LW": 102.3},
      {"freq": 2000.0 ,  "LW":  98.9},
      {"freq": 4000.0 ,  "LW":  91.6},
      {"freq": 8000.0 ,  "LW":  94.6}
    ]
  },
  {
    "LW_lib_id": "Nordex-N80-2.5-MF",
    "manufacturer": "Nordex",
    "model": "N80",
    "epower": 2500,
    "LW_note": "Meenbog windfarm (EIAR) https://www.pleanala.ie/en-ie/case/300460",
    "hub_height": 70,
    "freq_band": "1/1oct",
    "freq_weight": "A",
    "LW_data": [
      {"freq":   63.0 ,  "LW":  90.9},
      {"freq":  125.0 ,  "LW":  97.5},
      {"freq":  250.0 ,  "LW":  98.3},
      {"freq":  500.0 ,  "LW":  96.1},
      {"freq": 1000.0 ,  "LW":  95.8},
      {"freq": 2000.0 ,  "LW":  94.9},
      {"freq": 4000.0 ,  "LW":  91.3},
      {"freq": 8000.0 ,  "LW":  83.4}
    ]
  },
  {
    "LW_lib_id": "Nordex-N90-2.5-MF",
    "manufacturer": "Nordex",
    "model": "N90",
    "epower": 2500,
    "LW_note": "Barnesmore windfarm repowering (EIAR) https://www.pleanala.ie/en-ie/case/306303",
    "hub_height": 70,
    "freq_band": "1/1oct",
    "freq_weight": "flat",
    "LW_data": [
      {"freq":   63.0 ,  "LW": 116.9},
      {"freq":  125.0 ,  "LW": 110.9},
      {"freq":  250.0 ,  "LW": 107.8},
      {"freq":  500.0 ,  "LW": 102.8},
      {"freq": 1000.0 ,  "LW":  98.1},
      {"freq": 2000.0 ,  "LW":  95.8},
      {"freq": 4000.0 ,  "LW":  92.0},
      {"freq": 8000.0 ,  "LW":  86.5}
    ]
  },
  {
    "LW_lib_id": "Nordex-N133-4.8-MF",
    "manufacturer": "Nordex",
    "model": "N133",
    "epower": 4800,
    "LW_note": "Carrownagowan Wind Farm (EIAR) https://www.pleanala.ie/en-ie/case/308799",
    "hub_height": 101,
    "freq_band": "1/1oct",
    "freq_weight": "A",
    "LW_data": [
      {"freq":   63.0 ,  "LW":  88.9},
      {"freq":  125.0 ,  "LW":  94.6},
      {"freq":  250.0 ,  "LW":  96.9},
      {"freq":  500.0 ,  "LW":  97.7},
      {"freq": 1000.0 ,  "LW":  99.5},
      {"freq": 2000.0 ,  "LW": 100.0},
      {"freq": 4000.0 ,  "LW":  97.7},
      {"freq": 8000.0 ,  "LW":  87.1}
    ]
  },
  {
    "LW_lib_id": "Envelope-R133-MF",
    "manufacturer": "Envelope",
    "model": "R133",
    "LW_note": "Euchanhead Renewable Energy Development (ENA) https://www.scottishpowerrenewables.com/pages/euchanhead_renewable_energy_development.aspx",
    "freq_band": "1/1oct",
    "freq_weight": "flat",
    "LW_data": [
      {"freq":   63.0 ,  "LW": 117.0},
      {"freq":  125.0 ,  "LW": 112.7},
      {"freq":  250.0 ,  "LW": 108.4},
      {"freq":  500.0 ,  "LW": 106.3},
      {"freq": 1000.0 ,  "LW": 104.1},
      {"freq": 2000.0 ,  "LW": 102.0},
      {"freq": 4000.0 ,  "LW":  96.8},
      {"freq": 8000.0 ,  "LW":  82.9}
    ]
  },
  {
    "LW_lib_id": "GE-103-2.85-MF",
    "manufacturer": "GE",
    "model": "103",
    "epower": 2850,
    "LW_note": "Euchanhead Renewable Energy Development (ENA) https://www.scottishpowerrenewables.com/pages/euchanhead_renewable_energy_development.aspx",
    "freq_band": "1/1oct",
    "freq_weight": "flat",
    "LW_data": [
      {"freq":   63.0 ,  "LW": 114.3},
      {"freq":  125.0 ,  "LW": 111.8},
      {"freq":  250.0 ,  "LW": 106.8},
      {"freq":  500.0 ,  "LW": 102.8},
      {"freq": 1000.0 ,  "LW": 101.2},
      {"freq": 2000.0 ,  "LW": 100.1},
      {"freq": 4000.0 ,  "LW":  94.0},
      {"freq": 8000.0 ,  "LW":  74.5}
    ]
  },
  {
    "LW_lib_id": "Senvion-MM92-MF",
    "manufacturer": "Senvion",
    "model": "MM92",
    "LW_note": "Euchanhead Renewable Energy Development (ENA) https://www.scottishpowerrenewables.com/pages/euchanhead_renewable_energy_development.aspx",
    "freq_band": "1/1oct",
    "freq_weight": "flat",
    "LW_data": [
      {"freq":   63.0 ,  "LW": 111.6},
      {"freq":  125.0 ,  "LW": 108.6},
      {"freq":  250.0 ,  "LW": 106.0},
      {"freq":  500.0 ,  "LW": 102.2},
      {"freq": 1000.0 ,  "LW":  98.6},
      {"freq": 2000.0 ,  "LW":  91.7},
      {"freq": 4000.0 ,  "LW":  83.4},
      {"freq": 8000.0 ,  "LW":  72.9}
    ]
  },
  {
    "LW_lib_id": "Gamesa-G52-0.85-MF",
    "manufacturer": "Gamesa",
    "model": "G52",
    "epower": 850,
    "LW_note": "Euchanhead Renewable Energy Development (ENA) https://www.scottishpowerrenewables.com/pages/euchanhead_renewable_energy_development.aspx",
    "freq_band": "1/1oct",
    "freq_weight": "flat",
    "LW_data": [
      {"freq":   63.0 ,  "LW": 107.2},
      {"freq":  125.0 ,  "LW": 104.0},
      {"freq":  250.0 ,  "LW": 101.5},
      {"freq":  500.0 ,  "LW":  97.7},
      {"freq": 1000.0 ,  "LW":  94.1},
      {"freq": 2000.0 ,  "LW":  90.4},
      {"freq": 4000.0 ,  "LW":  85.1},
      {"freq": 8000.0 ,  "LW":  74.2}
    ]
  },
  {
    "LW_lib_id": "Gamesa-G80-2.0-MF",
    "manufacturer": "Gamesa",
    "model": "G80",
    "epower": 2000,
    "LW_note": "Euchanhead Renewable Energy Development (ENA) https://www.scottishpowerrenewables.com/pages/euchanhead_renewable_energy_development.aspx",
    "freq_band": "1/1oct",
    "freq_weight": "flat",
    "LW_data": [
      {"freq":   63.0 ,  "LW": 107.7},
      {"freq":  125.0 ,  "LW": 105.5},
      {"freq":  250.0 ,  "LW": 102.7},
      {"freq":  500.0 ,  "LW":  98.9},
      {"freq": 1000.0 ,  "LW":  96.5},
      {"freq": 2000.0 ,  "LW":  93.7},
      {"freq": 4000.0 ,  "LW":  87.4},
      {"freq": 8000.0 ,  "LW":  73.0}
    ]
  },
  {
    "LW_lib_id": "Gamesa-G87-2.0-MF",
    "manufacturer": "Gamesa",
    "model": "G87",
    "epower": 2000,
    "LW_note": "Arecleoch Windfarm Extension (EIA) https://www.scottishpowerrenewables.com/pages/arecleoch_windfarm_extension.aspx",
    "freq_band": "1/1oct",
    "freq_weight": "A",
    "LW_data": [
      {"freq":   63.0 ,  "LW":  87.4},
      {"freq":  125.0 ,  "LW":  96.3},
      {"freq":  250.0 ,  "LW": 101.6},
      {"freq":  500.0 ,  "LW": 101.1},
      {"freq": 1000.0 ,  "LW": 100.2},
      {"freq": 2000.0 ,  "LW":  97.2},
      {"freq": 4000.0 ,  "LW":  90.6},
      {"freq": 8000.0 ,  "LW":  78.2}
    ]
  },
  {
    "LW_lib_id": "Gamesa-G87-2.0-MF-2",
    "manufacturer": "Gamesa",
    "model": "G87",
    "epower": 2000,
    "LW_note": "Clauchrie Windfarm (EIA) https://www.scottishpowerrenewables.com/pages/clauchrie_windfarm.aspx",
    "hub_height": 67,
    "freq_band": "1/1oct",
    "freq_weight": "A",
    "LW_data": [
      {"freq":   63.0 ,  "LW":  88.9},
      {"freq":  125.0 ,  "LW":  97.8},
      {"freq":  250.0 ,  "LW": 103.1},
      {"freq":  500.0 ,  "LW": 102.6},
      {"freq": 1000.0 ,  "LW": 101.7},
      {"freq": 2000.0 ,  "LW":  98.7},
      {"freq": 4000.0 ,  "LW":  92.1},
      {"freq": 8000.0 ,  "LW":  79.7}
    ]
  },
  {
    "LW_lib_id": "Gamesa-G90-2.0-MF",
    "manufacturer": "Gamesa",
    "model": "G90",
    "epower": 2000,
    "LW_note": "Arecleoch Windfarm Extension (EIA) https://www.scottishpowerrenewables.com/pages/arecleoch_windfarm_extension.aspx",
    "freq_band": "1/1oct",
    "freq_weight": "A",
    "LW_data": [
      {"freq":   63.0 ,  "LW":  88.0},
      {"freq":  125.0 ,  "LW":  95.6},
      {"freq":  250.0 ,  "LW": 100.6},
      {"freq":  500.0 ,  "LW": 102.4},
      {"freq": 1000.0 ,  "LW": 100.2},
      {"freq": 2000.0 ,  "LW":  95.8},
      {"freq": 4000.0 ,  "LW":  90.6},
      {"freq": 8000.0 ,  "LW":  92.2}
    ]
  },
  {
    "LW_lib_id": "Gamesa-G114-2.5-MF",
    "manufacturer": "Gamesa",
    "model": "G114",
    "epower": 2500,
    "LW_note": "Arecleoch Windfarm Extension (EIA) https://www.scottishpowerrenewables.com/pages/arecleoch_windfarm_extension.aspx",
    "freq_band": "1/1oct",
    "freq_weight": "A",
    "LW_data": [
      {"freq":   63.0 ,  "LW":  79.2},
      {"freq":  125.0 ,  "LW":  86.3},
      {"freq":  250.0 ,  "LW":  91.9},
      {"freq":  500.0 ,  "LW":  95.0},
      {"freq": 1000.0 ,  "LW":  94.9},
      {"freq": 2000.0 ,  "LW":  91.2},
      {"freq": 4000.0 ,  "LW":  85.4},
      {"freq": 8000.0 ,  "LW":  74.5}
    ]
  },
  {
    "LW_lib_id": "Nordex-N149-4.x-MF",
    "manufacturer": "Nordex",
    "model": "N149",
    "epower": 4000,
    "LW_note": "Coole Wind Farm (EIA)",
    "hub_height": 100.5,
    "freq_band": "1/1oct",
    "freq_weight": "flat",
    "LW_data": [
      {"freq":   63.0 ,  "LW": 111.5},
      {"freq":  125.0 ,  "LW": 107.6},
      {"freq":  250.0 ,  "LW": 103.8},
      {"freq":  500.0 ,  "LW": 101.0},
      {"freq": 1000.0 ,  "LW":  98.5},
      {"freq": 2000.0 ,  "LW":  94.8},
      {"freq": 4000.0 ,  "LW":  87.4},
      {"freq": 8000.0 ,  "LW":  79.3}
    ]
  },
  {
    "LW_lib_id": "Nordex-V150-5.6-MF",
    "manufacturer": "Nordex",
    "model": "V150",
    "epower": 5600,
    "LW_note": "Castlebanny Wind Farm (EIA) https://www.pleanala.ie/en-ie/case/309306",
    "hub_height": 100.5,
    "freq_band": "1/1oct",
    "freq_weight": "A",
    "LW_data": [
      {"freq":   63.0 ,  "LW":  85.6},
      {"freq":  125.0 ,  "LW":  93.4},
      {"freq":  250.0 ,  "LW":  98.2},
      {"freq":  500.0 ,  "LW": 100.1},
      {"freq": 1000.0 ,  "LW":  98.9},
      {"freq": 2000.0 ,  "LW":  94.8},
      {"freq": 4000.0 ,  "LW":  87.7},
      {"freq": 8000.0 ,  "LW":  77.6}
    ]
  },
  {
    "LW_lib_id": "Acciona-AW132-3.3-MF",
    "manufacturer": "Acciona",
    "model": "AW132",
    "epower": 3300,
    "LW_note": "Komas Wind Energy (EIAR)",
    "freq_band": "1/1oct",
    "freq_weight": "flat",
    "LW_data": [
      {"freq":   31.5 ,  "LW": 113.1},
      {"freq":   63.0 ,  "LW": 110.9},
      {"freq":  125.0 ,  "LW": 114.3},
      {"freq":  250.0 ,  "LW": 112.5},
      {"freq":  500.0 ,  "LW": 106.2},
      {"freq": 1000.0 ,  "LW":  99.5},
      {"freq": 2000.0 ,  "LW":  96.7},
      {"freq": 4000.0 ,  "LW":  94.9},
      {"freq": 8000.0 ,  "LW":  90.4}
    ]
  },
  {
    "LW_lib_id": "Acciona-AW125-3.0-MF",
    "manufacturer": "Acciona",
    "model": "AW125",
    "epower": 3000,
    "LW_note": "Komas Wind Energy (EIAR)",
    "freq_band": "1/1oct",
    "freq_weight": "flat",
    "LW_data": [
      {"freq":   31.5 ,  "LW": 117.3},
      {"freq":   63.0 ,  "LW": 111.5},
      {"freq":  125.0 ,  "LW": 110.9},
      {"freq":  250.0 ,  "LW": 109.9},
      {"freq":  500.0 ,  "LW": 107.0},
      {"freq": 1000.0 ,  "LW": 103.3},
      {"freq": 2000.0 ,  "LW":  97.0},
      {"freq": 4000.0 ,  "LW":  86.6},
      {"freq": 8000.0 ,  "LW":  81.3}
    ]
  },
  {
    "LW_lib_id": "Vestas-V47-0.66-MF",
    "manufacturer": "Vestas",
    "model": "V47",
    "epower": 660,
    "LW_note": "Euchanhead Renewable Energy Development (ENA) https://www.scottishpowerrenewables.com/pages/euchanhead_renewable_energy_development.aspx",
    "freq_band": "1/1oct",
    "freq_weight": "flat",
    "LW_data": [
      {"freq":   63.0 ,  "LW": 104.4},
      {"freq":  125.0 ,  "LW": 102.2},
      {"freq":  250.0 ,  "LW":  98.4},
      {"freq":  500.0 ,  "LW":  98.4},
      {"freq": 1000.0 ,  "LW":  97.0},
      {"freq": 2000.0 ,  "LW":  91.7},
      {"freq": 4000.0 ,  "LW":  86.9},
      {"freq": 8000.0 ,  "LW":  68.1}
    ]
  },
  {
    "LW_lib_id": "Vestas-V52-0.85-MF",
    "manufacturer": "Vestas",
    "model": "V52",
    "epower": 850,
    "LW_note": "Barnesmore windfarm repowering (EIAR) https://www.pleanala.ie/en-ie/case/306303",
    "hub_height": 36.5,
    "freq_band": "1/1oct",
    "freq_weight": "flat",
    "LW_data": [
      {"freq":   63.0 ,  "LW": 109.2},
      {"freq":  125.0 ,  "LW": 106.1},
      {"freq":  250.0 ,  "LW": 105.3},
      {"freq":  500.0 ,  "LW": 105.5},
      {"freq": 1000.0 ,  "LW": 102.0},
      {"freq": 2000.0 ,  "LW":  96.9},
      {"freq": 4000.0 ,  "LW":  90.7},
      {"freq": 8000.0 ,  "LW":  82.6}
    ]
  },
  {
    "LW_lib_id": "Vestas-V90-2.0-A",
    "manufacturer": "Vestas",
    "model": "V90",
    "epower": 2000,
    "LW_note": "Vestas (Specifications); only LWA (104.0 dB) is shown",
    "freq_band": "A",
    "freq_weight": "flat",
    "LW_data": [
      {"freq": 1000.0 ,  "LW": 104.0}
    ]
  },
  {
    "LW_lib_id": "Vestas-V90-3.0-MF",
    "manufacturer": "Vestas",
    "model": "V90",
    "epower": 3000,
    "LW_note": "Kent hills 3 (NIA)",
    "hub_height": 80,
    "freq_band": "1/1oct",
    "freq_weight": "flat",
    "LW_data": [
      {"freq":   63.0 ,  "LW": 122.6},
      {"freq":  125.0 ,  "LW": 114.8},
      {"freq":  250.0 ,  "LW": 104.1},
      {"freq":  500.0 ,  "LW": 105.3},
      {"freq": 1000.0 ,  "LW": 104.1},
      {"freq": 2000.0 ,  "LW":  99.1},
      {"freq": 4000.0 ,  "LW":  94.9},
      {"freq": 8000.0 ,  "LW":  89.1}
    ]
  },
  {
    "LW_lib_id": "Vestas-V100-2.0-A",
    "manufacturer": "Vestas",
    "model": "V100",
    "epower": 2000,
    "LW_note": "Vestas (Specifications); only LWA (105.0 dB) is shown",
    "freq_band": "A",
    "freq_weight": "flat",
    "LW_data": [
      {"freq": 1000.0 ,  "LW": 105.0}
    ]
  },
  {
    "LW_lib_id": "Vestas-V110-2.0-A",
    "manufacturer": "Vestas",
    "model": "V110",
    "epower": 2000,
    "LW_note": "Vestas (Specifications); only LWA(107.6 dB) is shown",
    "freq_band": "A",
    "freq_weight": "flat",
    "LW_data": [
      {"freq": 1000.0 ,  "LW": 107.6}
    ]
  },
  {
    "LW_lib_id": "Vestas-V112-3.6-MF",
    "manufacturer": "Vestas",
    "model": "V112",
    "epower": 3600,
    "LW_note": "Euchanhead Renewable Energy Development (ENA) https://www.scottishpowerrenewables.com/pages/euchanhead_renewable_energy_development.aspx",
    "freq_band": "1/1oct",
    "freq_weight": "flat",
    "LW_data": [
      {"freq":   63.0 ,  "LW": 112.5},
      {"freq":  125.0 ,  "LW": 113.2},
      {"freq":  250.0 ,  "LW": 108.6},
      {"freq":  500.0 ,  "LW": 105.8},
      {"freq": 1000.0 ,  "LW": 101.5},
      {"freq": 2000.0 ,  "LW":  97.6},
      {"freq": 4000.0 ,  "LW":  92.5},
      {"freq": 8000.0 ,  "LW":  76.4}
    ]
  },
  {
    "LW_lib_id": "Vestas-V117-4.2-A",
    "manufacturer": "Vestas",
    "model": "V117",
    "epower": 4200,
    "LW_note": "Vestas (Specifications); only LWA (106.0 dB) is shown",
    "freq_band": "A",
    "freq_weight": "flat",
    "LW_data": [
      {"freq": 1000.0 ,  "LW": 106.0}
    ]
  },
  {
    "LW_lib_id": "Vestas-V120-2.2-A",
    "manufacturer": "Vestas",
    "model": "V120",
    "epower": 2200,
    "LW_note": "Vestas (Specifications); only LWA (110.5 dB) is shown",
    "freq_band": "A",
    "freq_weight": "flat",
    "LW_data": [
      {"freq": 1000.0 ,  "LW": 110.5}
    ]
  },
  {
    "LW_lib_id": "Vestas-V126-3.45-MF",
    "manufacturer": "Vestas",
    "model": "V126",
    "epower": 3450,
    "LW_note": "Kent hills 3 (Noise impact assessment)",
    "hub_height": 117,
    "freq_band": "1/1oct",
    "freq_weight": "flat",
    "LW_data": [
      {"freq":   63.0 ,  "LW": 108.7},
      {"freq":  125.0 ,  "LW": 105.5},
      {"freq":  250.0 ,  "LW": 104.1},
      {"freq":  500.0 ,  "LW":  99.9},
      {"freq": 1000.0 ,  "LW":  99.1},
      {"freq": 2000.0 ,  "LW":  94.2},
      {"freq": 4000.0 ,  "LW":  86.2},
      {"freq": 8000.0 ,  "LW":  70.3}
    ]
  },
  {
    "LW_lib_id": "Vestas-V136-3.6-MF",
    "manufacturer": "Vestas",
    "model": "V136",
    "epower": 3600,
    "LW_note": "Komas Wind Energy (EIAR)",
    "hub_height": 112,
    "freq_band": "1/1oct",
    "freq_weight": "flat",
    "LW_data": [
      {"freq":   31.5 ,  "LW": 107.8},
      {"freq":   63.0 ,  "LW": 107.4},
      {"freq":  125.0 ,  "LW": 103.0},
      {"freq":  250.0 ,  "LW":  98.9},
      {"freq":  500.0 ,  "LW":  92.8},
      {"freq": 1000.0 ,  "LW":  92.1},
      {"freq": 2000.0 ,  "LW":  89.0},
      {"freq": 4000.0 ,  "LW":  81.6},
      {"freq": 8000.0 ,  "LW":  67.1}
    ]
  },
  {
    "LW_lib_id": "Vestas-V136-4.2-A",
    "manufacturer": "Vestas",
    "model": "V136",
    "epower": 4200,
    "LW_note": "Vestas (Specifications); only LWA (103.9 dB) is shown",
    "freq_band": "A",
    "freq_weight": "flat",
    "LW_data": [
      {"freq": 1000.0 ,  "LW": 103.9}
    ]
  },
  {
    "LW_lib_id": "Vestas-V150-4.2-A",
    "manufacturer": "Vestas",
    "model": "V150",
    "epower": 4200,
    "LW_note": "Vestas (Specifications); only LWA (104.9 dB) is shown",
    "freq_band": "A",
    "freq_weight": "flat",
    "LW_data": [
      {"freq": 1000.0 ,  "LW": 104.9}
    ]
  },
  {
    "LW_lib_id": "Vestas-V150-5.6-MF",
    "manufacturer": "Vestas",
    "model": "V150",
    "epower": 5600,
    "LW_note": "Arecleoch Windfarm Extension (EIA) https://www.scottishpowerrenewables.com/pages/arecleoch_windfarm_extension.aspx",
    "freq_band": "1/1oct",
    "freq_weight": "A",
    "LW_data": [
      {"freq":   63.0 ,  "LW":  87.6},
      {"freq":  125.0 ,  "LW":  95.4},
      {"freq":  250.0 ,  "LW": 100.2},
      {"freq":  500.0 ,  "LW": 102.1},
      {"freq": 1000.0 ,  "LW": 100.9},
      {"freq": 2000.0 ,  "LW":  96.8},
      {"freq": 4000.0 ,  "LW":  89.7},
      {"freq": 8000.0 ,  "LW":  79.6}
    ]
  },
  {
    "LW_lib_id": "Vestas-V155-3.6-A",
    "manufacturer": "Vestas",
    "model": "V155",
    "epower": 3600,
    "LW_note": "Vestas (Specifications); only LWA (108.8 dB) is shown",
    "freq_band": "A",
    "freq_weight": "flat",
    "LW_data": [
      {"freq": 1000.0 ,  "LW": 108.8}
    ]
  },
  {
    "LW_lib_id": "Vestas-V164-9.5-A",
    "manufacturer": "Vestas",
    "model": "V174",
    "epower": 9500,
    "LW_note": "Vestas (Specifications); only LWA (112.9 dB) is shown",
    "freq_band": "A",
    "freq_weight": "flat",
    "LW_data": [
      {"freq": 1000.0 ,  "LW": 112.9}
    ]
  },
  {
    "LW_lib_id": "Vestas-V164-10.0-A",
    "manufacturer": "Vestas",
    "model": "V164",
    "epower": 10000,
    "LW_note": "Vestas (Specifications); only LWA (112.9 dB) is shown",
    "freq_band": "A",
    "freq_weight": "flat",
    "LW_data": [
      {"freq": 1000.0 ,  "LW": 112.9}
    ]
  },
  {
    "LW_lib_id": "Vestas-V174-9.5-A",
    "manufacturer": "Vestas",
    "model": "V174",
    "epower": 9500,
    "LW_note": "Vestas (Specifications); only LWA (112.9 dB) is shown",
    "freq_band": "A",
    "freq_weight": "flat",
    "LW_data": [
      {"freq": 1000.0 ,  "LW": 112.9}
    ]
  },
  {
    "LW_lib_id": "Vestas-V236-15.0-A",
    "manufacturer": "Vestas",
    "model": "V236",
    "epower": 15000,
    "LW_note": "Vestas (Specifications); only LWA (118.0 dB) is shown",
    "freq_band": "A",
    "freq_weight": "flat",
    "LW_data": [
      {"freq": 1000.0 ,  "LW": 118.0}
    ]
  }
]
