{
  "TITLE": "H-RISK",
  "SUBTITLE": "風車騒音による健康リスクの評価",
  "MANUAL": "マニュアル",
  "PATH": {
  	"CSS": "config/bootstrap.css",
    "LOG_eval": "paste0(TEMP_DIR, '/hrisk.log')",
  	"JS": {
  		"L_EASYPRINT": "config/leaflet-easyPrint.js"
  	},
  	"SERVER_SCRIPT":[
  		"R-script/func-set-wtdata.R",
  		"R-script/func-cmpt-SPL.R",
  		"R-script/func-est-risk.R",
  		"R-script/func-control-leaflet.R",
  		"R-script/func-io-data.R",
  		"R-script/func-log-process.R"
  	],
		"UI_SCRIPT":[
  		"R-script/ui-dashboard.R",
  		"R-script/ui-map.R",
  		"R-script/ui-wt-edit.R",
  		"R-script/ui-LW-edit.R",
  		"R-script/ui-calc-settings.R",
  		"R-script/ui-insl-edit.R",
  		"R-script/ui-setting-tab.R",
  		"R-script/ui-calc-tab.R",
  		"R-script/ui-IO-tab.R"
  	]

  },
	"INITIAL_LOCATION": {
		"LONG": 141.35, "LAT": 43.07, "ZOOM": 11
	},
  "RISK_TAB_FONTSIZE": "100%",
  "CRS_GEO": 4326
}