{
  "COL":{
    "map_column":{
      "func": "column",
      "id": "map_column",
      "class": "map_column",
      "width": 8.0
    },
    "control_column":{
      "func": "column",
      "id": "control_column",
      "class": "control_column",
      "width": 4.0
    }
  },
  "BOX":{
    "map_box": {
      "func": "box",
      "id": "map_box",
      "status": "success",
      "width": null
    },
    "control_tabbox": {
      "func": "tabBox",
      "id": "control_tabbox",
      "width": null
    }
  },
  "PANEL": {
    "wt_settings_tabpanel":{
      "func": "tabPanel",
      "id": "wt_settings_tabpanel",
      "title": "風車の設定",
      "status": "primary"
    },
    "calc_tabpanel":{
      "func": "tabPanel",
      "id": "calc_tabpanel",
      "title": "計算・描画",
      "status": "primary"
    },
    "save_load_tabpanel": {
      "func": "tabPanel",
      "id": "save_load_tabpanel",
      "title": "保存・読込",
      "status": "primary"
    },
    "map_control_abpanel": {
      "func": "absolutePanel",
      "id": "map_control_abpanel",
      "top": "15px",
      "right": "15px",
      "width": "300px"
    },
    "map_control_show_abpanel":{
      "func": "absolutePanel",
      "id": "map_control_show_abpanel",
      "top": "15px",
      "right": "15px",
      "width": "120px"
    },
    "LW_edit_panel":{
      "func": "fixedPanel",
      "id": "LW_edit_panel",
      "draggable": false
    },
    "wt_edit_panel":{
      "func": "fixedPanel",
      "id": "wt_edit_panel",
      "draggable": true
    },
    "insl_edit_panel":{
      "func": "fixedPanel",
      "id": "insl_edit_panel",
      "draggable": true
    },
    "calc_settings_edit_abpanel": {
      "func": "fixedPanel",
      "id": "calc_settings_edit_abpanel"
    }
  },
  "ELEMENT":{
    "wt_riskmap": {
      "func": "leafletOutput",
      "outputId": "wt_riskmap",
      "height": "100%"
    },
    "wt_default_setting_label": {
      "func": "h4",
      "arg_1": "風車の音響パワーレベルの設定",
      "arg_2_eval": "tags$sup(icon(\"info-circle\"), id = \"wt_default_setting_info\")"
    },
    "wt_default_setting_info": {
      "func": "tippy_this",
      "elementId": "wt_default_setting_info",
      "tooltip": "配置する風車の音響パワーレベルを設定します。発電出力に基づく自動で設定，既存ライブラリからの選択，ライブラリのインポート，等が可能です。いずれも「設定」から進んでください。"
    },
    "wt_LW_cur_setting_output": {
      "func": "textOutput",
      "arg_1": "wt_LW_cur_setting"
    },
    "wt_edit_label": {
      "func": "h4",
      "arg_1": "風車情報の編集",
      "arg_2_eval": "tags$sup(icon(\"info-circle\"), id = \"wt_edit_info\")"
    },
    "wt_edit_info": {
      "func": "tippy_this",
      "elementId": "wt_edit_info",
      "tooltip": "「対象の風車」で選んだ風車の情報を編集したり（「設定」）削除したり（「削除」）できます。「リセット」は，すべての風車情報を消去します。なお，地図上の風車をクリックしても「設定ボタン」と同様に風車の情報を編集できます。"
    },
    "wt_id_dropdown": {
      "func": "selectizeInput",
      "inputId": "wt_id_dropdown",
      "label": "対象の風車：",
      "width": "100%",
      "choices": {"---": "none"}
    },
    "show_LW_edit_panel_btn": {
      "func": "actionButton",
      "inputId": "show_LW_edit_panel_btn",
      "label": "設定",
      "width": "100%",
      "icon_eval": "icon(\"pen\")",
      "style": "text-align:left;display:inline"
    },
    "show_wt_edit_panel_btn": {
      "func": "actionButton",
      "inputId": "show_wt_edit_panel_btn",
      "label": "編集",
      "width": "35%",
      "icon_eval": "icon(\"pen\")",
      "style": "text-align:left;display:inline"
    },
    "selected_wt_delete_btn": {
      "func": "actionButton",
      "inputId": "selected_wt_delete_btn",
      "label": "削除",
      "width": "35%",
      "icon_eval": "icon(\"trash-alt\")",
      "style": "text-align:left;display:inline"
    },
    "reset_btn": {
      "func": "actionButton",
      "inputId": "reset_btn",
      "label": "リセット",
      "width": "30%",
      "icon_eval": "icon(\"trash-alt\")",
      "style": "text-align:left;"
    },
    "wt_LW_label": {
      "func": "h4",
      "arg_1": "風車音の音響パワーレベル",
      "arg_2_eval": "tags$sup(icon(\"info-circle\"), id = \"wt_LW_info\")"
    },
    "wt_LW_info": {
      "func": "tippy_this",
      "elementId": "wt_LW_info",
      "tooltip": "地図上に風車を配置すると，風車ID毎に音響パワーレベルが表示されます。複数の風車音が同じ場合には，風車IDが「:」で区切って表示されます（たとえば，Wt001・Wt002・Wt003の周波数特性が同じとき，Wt001:Wt003，と表されます。）。"
    },
    "wt_LW_plot": {
      "func": "plotOutput",
      "outputId": "wt_LW_plot",
      "height": "320px"
    },
    "LW_edit_panel_title": {
      "func": "h4",
      "arg_1": "風車の音響パワーレベルの設定"
    },
    "LW_edit_panel_type_label": {
      "func": "h4",
      "arg_1": "設定方法"
    },
    "LW_edit_panel_type_rbtn": {
      "func": "radioButtons",
      "inputId": "LW_edit_panel_type_rbtn",
      "label": null,
      "width": "100%",
      "choices": {
        "発電出力から自動で設定": "auto", 
        "既存ライブラリを指定": "manual",
        "ライブラリを追加（インポート）": "import"
      }
    },
    "LW_edit_panel_parameter_label": {
      "func": "h4",
      "arg_1": "設定項目"
    },
    "LW_edit_panel_auto_freq_band_label": {
      "func": "p",
      "arg_1": "オクターブバンド"
    },
    "LW_edit_panel_auto_freq_band_rbtn": {
      "func": "radioButtons",
      "inputId": "LW_edit_panel_auto_freq_band_rbtn",
      "label": null,
      "width": "100%",
      "choices": {
        "1/1オクターブバンド": "1/1oct", 
        "1/3オクターブバンド": "1/3oct"
      },
      "selected": "1/3oct"
    },
    "LW_edit_panel_epower_numinput": {
      "func": "numericInput",
      "inputId": "LW_edit_panel_epower_numinput",
      "label": "発電出力（kW）",
      "width": "100%",
      "value": 10000,
      "step": 500,
      "min": 2000,
      "max": 15000
    },
    "LW_edit_panel_hubheight_numinput": {
      "func": "numericInput",
      "inputId": "LW_edit_panel_hubheight_numinput",
      "label": "ハブ高さ（m）",
      "width": "100%",
      "value": 100,
      "step": 1,
      "min": 20,
      "max": 200
    },
    "LW_edit_panel_lib_group_dropdown": {
      "func": "selectizeInput",
      "inputId": "LW_edit_panel_lib_group_dropdown",
      "label": "分類",
      "width": "100%",
      "choices": {
        "2000 kW 未満":"epower>=0&epower<2000",
        "2000 - 4000 kW":"epower>=2000&epower<4000",
        "4000 - 8000 kW":"epower>=4000&epower<8000",
        "8000 kW 以上":"epower>=8000",
        "発電出力不明":"is.na(epower)",
        "新規ライブラリ":"group==\"import\""
      }
    },
    "LW_edit_panel_lib_dropdown": {
      "func": "selectizeInput",
      "inputId": "LW_edit_panel_lib_dropdown",
      "label": "ライブラリ",
      "width": "100%",
      "choices": {
        "---":"none"
      }
    },
    "LW_edit_panel_lib_spec_label": {
      "func": "h4",
      "arg_1": "諸元"
    },
    "LW_edit_panel_lib_spec_detail_label": {
      "func": "verbatimTextOutput",
      "arg_1": "wt_LW_lib_spec"
    },
    "LW_edit_panel_lib_spec_detail_render": {
      "func": "function(wt_data, spec_label) purrr::imap_chr(spec_label, ~paste0(.x$prefix, wt_data[[.y]], .x$suffix)) %>% paste(collapse = \"\\n\")",
      "spec_label": {
        "manufacturer": {"prefix": "製造会社：", "suffix": ""},
        "model":        {"prefix": "型式：",     "suffix": ""},
        "epower":       {"prefix": "発電出力：", "suffix": " kW"},
        "hub_height":   {"prefix": "ハブ高さ：", "suffix": " m"},
        "LW_note":         {"prefix": "備考：",     "suffix": ""}
      }
    },
    "LW_edit_panel_lib_fileinput": {
      "func": "fileInput",
      "inputId": "LW_edit_panel_lib_fileinput",
      "label": null,
      "width": "100%",
      "accept": ["json", "csv"],
      "buttonLabel": "ライブラリ読み込み",
      "placeholder": ".csv / .json"
    },
    "help_link": {
      "func": "htmltools::a",
      "arg_1":"ファイルの入出力形式について",
      "href": "manual/file-io.html",
      "target":"_blank"
    },

    "auto_LW_label_render": {
      "func": "function(epower, freq_band) paste0(sprintf(\"自動設定（発電出力 %d kW，周波数区分 \", epower), freq_band, \")\" )"
    },
    "manual_LW_label_render": {
      "func": "function(LW_lib_id) paste0(\"ライブラリ: \", LW_lib_id)"
    },

    "LW_edit_panel_LW_plot_label": {
      "func": "h4",
      "arg_1": "周波数特性"
    },
    "LW_edit_panel_LW_plot": {
      "func": "plotOutput",
      "outputId": "LW_edit_panel_LW_plot",
      "height": "320px"
    },

    "LW_edit_panel_close_btn": {
      "func": "actionButton",
      "inputId": "LW_edit_panel_close_btn",
      "label": "x",
      "style": "margin-left:auto"
    },

    "wt_edit_panel_title_output": {
      "func": "textOutput",
      "arg_1": "wt_edit_panel_title"
    },
    "wt_edit_panel_title_render": {
      "func": "sprintf",
      "fmt": "風車「%s」"
    },
    "wt_edit_panel_pos_label": {
      "func": "h4",
      "arg_1": "位置"
    },
    "wt_edit_panel_lat_numinput": {
      "func": "numericInput",
      "inputId": "wt_edit_panel_lat_numinput",
      "label": "緯度（十進法）：",
      "width": "100%",
      "value": -1,
      "step": 0.01
    },
    "wt_edit_panel_lng_numinput": {
      "func": "numericInput",
      "inputId": "wt_edit_panel_lng_numinput",
      "label": "経度（十進法）：",
      "width": "100%",
      "value": -1,
      "step": 0.01
    },
    "wt_edit_panel_hheight_numinput": {
      "func": "numericInput",
      "inputId": "wt_edit_panel_hheight_numinput",
      "label": "ハブ高さ（m）：",
      "width": "100%",
      "value": -1,
      "step": 1
    },
    "wt_edit_panel_LW_label": {
      "func": "h4",
      "arg_1": "音響パワーレベル"
    },
    "wt_edit_panel_LW_detail": {
      "func": "textOutput",
      "arg_1": "wt_edit_panel_LW_detail"
    },
    "wt_edit_panel_LW_detail_render": {
      "func": "function(x) paste(\"現在の設定：\", x)"
    },
    "wt_edit_panel_LW_plot": {
      "func": "plotOutput",
      "outputId": "wt_edit_panel_LW_plot",
      "height": "320px"
    },
    "wt_edit_panel_change_LW_lib_check": {
      "func": "checkboxInput",
      "inputId": "wt_edit_panel_change_LW_lib_check",
      "label": "音響パワーレベルの変更",
      "width": "50%",
      "value": false
    },
    "wt_edit_panel_LW_cur_setting_output": {
      "func": "textOutput",
      "arg_1": "wt_LW_cur_setting_abpanel"
    },
    "wt_edit_panel_show_LW_edit_panel_btn": {
      "func": "actionButton",
      "inputId": "wt_edit_panel_show_LW_edit_panel_btn",
      "label": "音響パワーレベルを指定",
      "width": "100%"
    },
    "wt_edit_panel_cancel_btn": {
      "func": "actionButton",
      "inputId": "wt_edit_panel_cancel_btn",
      "label": "キャンセル",
      "width": "45%",
      "icon_eval": "icon(\"window-close\")",
      "style": "text-align:left;display:inline"
    },
    "wt_edit_panel_update_btn": {
      "func": "actionButton",
      "inputId": "wt_edit_panel_update_btn",
      "label": "変更を適用",
      "width": "45%",
      "icon_eval": "icon(\"check\")",
      "style": "text-align:left;display:inline"
    },

    "wt_edit_panel_delete_btn": {
      "func": "actionButton",
      "inputId": "wt_edit_panel_delete_btn",
      "label": "風車を削除",
      "width": "45%",
      "icon_eval": "icon(\"trash-alt\")",
      "style": "text-align:left;display:inline"
    },
    
    "insl_edit_panel_title": {
      "func": "h4",
      "arg_1": "遮音量の設定　（単位：dB）"
    },
    "insl_edit_panel_info": {
      "func": "tippy_this",
      "elementId": "insl_edit_panel_numinput_div",
      "tooltip": "周波数毎に遮音量を設定できます。遮音量の設定は，参照値（～80Hz）の影響人口推定にのみ反映されます。"
    },

    
    "insl_edit_panel_f10_numinput": {
      "func": "numericInput",
      "inputId": "insl_edit_panel_f10_numinput",
      "label": "10 Hz：",
      "width": "100%",
      "value": 0,
      "step": 0.1
    },
    "insl_edit_panel_f12_numinput": {
      "func": "numericInput",
      "inputId": "insl_edit_panel_f12_numinput",
      "label": "12.5 Hz：",
      "width": "100%",
      "value": 0,
      "step": 0.1
    },
    "insl_edit_panel_f16_numinput": {
      "func": "numericInput",
      "inputId": "insl_edit_panel_f16_numinput",
      "label": "16 Hz：",
      "width": "100%",
      "value": 0,
      "step": 0.1
    },
    "insl_edit_panel_f20_numinput": {
      "func": "numericInput",
      "inputId": "insl_edit_panel_f20_numinput",
      "label": "20 Hz：",
      "width": "100%",
      "value": 0,
      "step": 0.1
    },
    "insl_edit_panel_f25_numinput": {
      "func": "numericInput",
      "inputId": "insl_edit_panel_f25_numinput",
      "label": "25 Hz：",
      "width": "100%",
      "value": 0,
      "step": 0.1
    },
    "insl_edit_panel_f31_numinput": {
      "func": "numericInput",
      "inputId": "insl_edit_panel_f31_numinput",
      "label": "31.5 Hz：",
      "width": "100%",
      "value": 0,
      "step": 0.1
    },
    "insl_edit_panel_f40_numinput": {
      "func": "numericInput",
      "inputId": "insl_edit_panel_f40_numinput",
      "label": "40 Hz：",
      "width": "100%",
      "value": 0,
      "step": 0.1
    },
    "insl_edit_panel_f50_numinput": {
      "func": "numericInput",
      "inputId": "insl_edit_panel_f50_numinput",
      "label": "50 Hz：",
      "width": "100%",
      "value": 0,
      "step": 0.1
    },
    "insl_edit_panel_f63_numinput": {
      "func": "numericInput",
      "inputId": "insl_edit_panel_f63_numinput",
      "label": "63 Hz：",
      "width": "100%",
      "value": 0,
      "step": 0.1
    },
    "insl_edit_panel_f80_numinput": {
      "func": "numericInput",
      "inputId": "insl_edit_panel_f80_numinput",
      "label": "80 Hz：",
      "width": "100%",
      "value": 0,
      "step": 0.1
    },
    "insl_edit_panel_f100_numinput": {
      "func": "numericInput",
      "inputId": "insl_edit_panel_f100_numinput",
      "label": "100 Hz：",
      "width": "100%",
      "value": 0,
      "step": 0.1
    },
    
    "insl_edit_panel_f125_numinput": {
      "func": "numericInput",
      "inputId": "insl_edit_panel_f125_numinput",
      "label": "125 Hz：",
      "width": "100%",
      "value": 0,
      "step": 0.1
    },
    
    "insl_edit_panel_f160_numinput": {
      "func": "numericInput",
      "inputId": "insl_edit_panel_f160_numinput",
      "label": "160 Hz：",
      "width": "100%",
      "value": 0,
      "step": 0.1
    },
    
    "insl_edit_panel_f200_numinput": {
      "func": "numericInput",
      "inputId": "insl_edit_panel_f200_numinput",
      "label": "200 Hz：",
      "width": "100%",
      "value": 0,
      "step": 0.1
    },
    "insl_edit_panel_f250_numinput": {
      "func": "numericInput",
      "inputId": "insl_edit_panel_f250_numinput",
      "label": "250 Hz：",
      "width": "100%",
      "value": 0,
      "step": 0.1
    },
    "insl_edit_panel_f315_numinput": {
      "func": "numericInput",
      "inputId": "insl_edit_panel_f315_numinput",
      "label": "315 Hz：",
      "width": "100%",
      "value": 0,
      "step": 0.1
    },
    "insl_edit_panel_f400_numinput": {
      "func": "numericInput",
      "inputId": "insl_edit_panel_f400_numinput",
      "label": "400 Hz：",
      "width": "100%",
      "value": 0,
      "step": 0.1
    },
    "insl_edit_panel_f500_numinput": {
      "func": "numericInput",
      "inputId": "insl_edit_panel_f500_numinput",
      "label": "500 Hz：",
      "width": "100%",
      "value": 0,
      "step": 0.1
    },
    "insl_edit_panel_f630_numinput": {
      "func": "numericInput",
      "inputId": "insl_edit_panel_f630_numinput",
      "label": "630 Hz：",
      "width": "100%",
      "value": 0,
      "step": 0.1
    },
    "insl_edit_panel_f800_numinput": {
      "func": "numericInput",
      "inputId": "insl_edit_panel_f800_numinput",
      "label": "800 Hz：",
      "width": "100%",
      "value": 0,
      "step": 0.1
    },
    "insl_edit_panel_f1000_numinput": {
      "func": "numericInput",
      "inputId": "insl_edit_panel_f1000_numinput",
      "label": "1.0 kHz：",
      "width": "100%",
      "value": 0,
      "step": 0.1
    },
    "insl_edit_panel_f1250_numinput": {
      "func": "numericInput",
      "inputId": "insl_edit_panel_f1250_numinput",
      "label": "1.25 kHz：",
      "width": "100%",
      "value": 0,
      "step": 0.1
    },
    "insl_edit_panel_f1600_numinput": {
      "func": "numericInput",
      "inputId": "insl_edit_panel_f1600_numinput",
      "label": "1.6 kHz：",
      "width": "100%",
      "value": 0,
      "step": 0.1
    },
    "insl_edit_panel_f2000_numinput": {
      "func": "numericInput",
      "inputId": "insl_edit_panel_f2000_numinput",
      "label": "2.0 kHz：",
      "width": "100%",
      "value": 0,
      "step": 0.1
    },
    "insl_edit_panel_f2500_numinput": {
      "func": "numericInput",
      "inputId": "insl_edit_panel_f2500_numinput",
      "label": "2.5 kHz：",
      "width": "100%",
      "value": 0,
      "step": 0.1
    },
    "insl_edit_panel_f3150_numinput": {
      "func": "numericInput",
      "inputId": "insl_edit_panel_f3150_numinput",
      "label": "3.15 kHz：",
      "width": "100%",
      "value": 0,
      "step": 0.1
    },
    "insl_edit_panel_f4000_numinput": {
      "func": "numericInput",
      "inputId": "insl_edit_panel_f4000_numinput",
      "label": "4.0 kHz：",
      "width": "100%",
      "value": 0,
      "step": 0.1
    },
    "insl_edit_panel_f5000_numinput": {
      "func": "numericInput",
      "inputId": "insl_edit_panel_f5000_numinput",
      "label": "5.0 kHz：",
      "width": "100%",
      "value": 0,
      "step": 0.1
    },
    "insl_edit_panel_f6300_numinput": {
      "func": "numericInput",
      "inputId": "insl_edit_panel_f6300_numinput",
      "label": "6.3 kHz：",
      "width": "100%",
      "value": 0,
      "step": 0.1
    },
    "insl_edit_panel_f8000_numinput": {
      "func": "numericInput",
      "inputId": "insl_edit_panel_f8000_numinput",
      "label": "8.0 kHz：",
      "width": "100%",
      "value": 0,
      "step": 0.1
    },
    "insl_edit_panel_f10000_numinput": {
      "func": "numericInput",
      "inputId": "insl_edit_panel_f10000_numinput",
      "label": "10.0 kHz：",
      "width": "100%",
      "value": 0,
      "step": 0.1
    },




    "insl_edit_panel_cancel_btn": {
      "func": "actionButton",
      "inputId": "insl_edit_panel_cancel_btn",
      "label": "キャンセル",
      "width": "45%",
      "icon_eval": "icon(\"window-close\")",
      "style": "text-align:left;display:inline"
    },
    "insl_edit_panel_update_btn": {
      "func": "actionButton",
      "inputId": "insl_edit_panel_update_btn",
      "label": "変更を適用",
      "width": "45%",
      "icon_eval": "icon(\"check\")",
      "style": "text-align:left;display:inline"
    },

    "calc_settings_label": {
      "func": "h4",
      "arg_1": "計算条件の設定",
      "arg_2_eval": "tags$sup(icon(\"info-circle\"), id = \"calc_settings_info\")"
    },
    "calc_settings_info": {
      "func": "tippy_this",
      "elementId": "calc_settings_info",
      "tooltip": "計算の諸条件を設定できます。「騒音伝搬条件等」については，計算結果に反映させるためには，計算の前に設定してください。「遮音量」については，（影響人口推定の一部に利用されるため，）レベル計算後に設定しても結果に反映されます。"
    },
    "show_calc_settings_edit_abpanel_btn": {
      "func": "actionButton",
      "inputId": "show_calc_settings_edit_abpanel_btn",
      "label": "騒音伝搬条件等",
      "width": "100%",
      "icon_eval": "icon(\"pen\")",
      "style": "text-align:left"
    },
    "calc_start_label": {
      "func": "h4",
      "arg_1": "左図の条件で計算",
      "arg_2_eval": "tags$sup(icon(\"info-circle\"), id = \"calc_start_info\")"
    },
    "calc_start_info": {
      "func": "tippy_this",
      "elementId": "calc_start_info",
      "tooltip": "「計算実行」で計算を行います。風車の位置，音響パワーレベル，騒音伝搬条件等について，間違いがないか確認し，計算を行ってください。風車の数が多かったり範囲が広かったりすると，計算に時間がかかることがあります。"
    },
    "calc_start_btn": {
      "func": "actionButton",
      "inputId": "calc_start_btn",
      "label": "計算実行",
      "width": "100%",
      "icon_eval": "icon(\"globe-asia\")",
      "style": "text-align:left"
    },
    "show_insl_edit_panel_btn": {
      "func": "actionButton",
      "inputId": "show_insl_edit_panel_btn",
      "label": "遮音量",
      "width": "100%",
      "icon_eval": "icon(\"house-user\")",
      "style": "text-align:left"
    },
    "contour_select_label": {
      "func": "h4",
      "arg_1": "予測結果の描画",
      "arg_2_eval": "tags$sup(icon(\"info-circle\"), id = \"contour_select_info\")"
    },
    "contour_select_info": {
      "func": "tippy_this",
      "elementId": "contour_select_info",
      "tooltip": "計算が完了していれば，様々な予測結果をマップに描画できます。"
    },
    "contour_select_rbtn": {
      "func": "radioButtons",
      "inputId": "contour_select_rbtn",
      "label": null,
      "width": "100%",
      "choices": {
        "---": "none"
      }
    },
    "risk_tab":{
      "func": "gt_output",
      "outputId": "risk_tab"
    },
    "map_control_abpanel_hide_btn": {
      "func": "actionButton",
      "inputId": "map_control_abpanel_hide_btn",
      "label": "閉じる",
      "width": "100%",
      "icon_eval": "icon(\"globe-asia\")"
    },
    "map_control_abpanel_opacity_slider": {
      "func": "sliderInput",
      "inputId": "map_control_abpanel_opacity_slider",
      "label": "コンター透明度",
      "value": 0.3,
      "step": 0.01,
      "min": 0,
      "max": 1,
      "ticks": false
    },
    "map_control_abpanel_legend_slider": {
      "func": "sliderInput",
      "inputId": "map_control_abpanel_legend_slider",
      "label": "凡例サイズ",
      "value": 1,
      "step": 0.1,
      "min": 0.1,
      "max": 3,
      "ticks": false
    },
    "show_map_control_abpanel_btn": {
      "func": "actionButton",
      "inputId": "show_map_control_abpanel_btn",
      "label": "設定",
      "width": "100%",
      "icon_eval": "icon(\"globe-asia\")"
    },
    "calc_settings_edit_abpanel_label": {
      "func": "h4",
      "arg_1": "計算条件の設定"
    },
    "calc_settings_edit_abpanel_LW_label": {
      "func": "h5",
      "arg_1": "音源"
    },
    "calc_settings_edit_abpanel_LW_band_check": {
      "func": "checkboxInput",
      "inputId": "calc_settings_edit_abpanel_LW_band_check",
      "label": "オクターブバンドを設定",
      "width": "100%",
      "value": false
    },
    "calc_settings_edit_abpanel_LW_band_dropdown": {
      "func": "selectizeInput",
      "inputId": "calc_settings_edit_abpanel_LW_band_dropdown",
      "label": null,
      "choices": {
        "1/1 オクターブバンド":"1/1oct",
        "1/3 オクターブバンド":"1/3oct"
      },
      "width": "100%",
      "selected": "fix6dB"
    },
    "calc_settings_edit_abpanel_LW_band_info": {
      "func": "tippy_this",
      "elementId": "calc_settings_edit_abpanel_LW_band_div",
      "tooltip": "音響パワーレベルを，指定のオクターブバンドに変更します。オクターブバンドが異なる複数の風車を使う場合にのみ設定してください。"
    },
    "calc_settings_edit_abpanel_LW_uncertainty_check": {
      "func": "checkboxInput",
      "inputId": "calc_settings_edit_abpanel_LW_uncertainty_check",
      "label": "音響パワーレベルを補正",
      "width": "100%",
      "value": false
    },
    "calc_settings_edit_abpanel_LW_uncertainty_numinput": {
      "func": "numericInput",
      "inputId": "calc_settings_edit_abpanel_LW_uncertainty_numinput",
      "label": "補正量 (dB)：",
      "width": "100%",
      "value": 0,
      "step": 0.1,
      "min": 0,
      "max": 2.5
    },
    "calc_settings_edit_abpanel_LW_uncertainty_info": {
      "func": "tippy_this",
      "elementId": "calc_settings_edit_abpanel_LW_uncertainty_check_div",
      "tooltip": "音響パワーレベルは，仕様通りではなく，バラつきがあることが普通です。音響パワーレベルに1-2dBの上乗せを行うことによって，安全側の予測を行うことが可能です。"
    },
    "calc_settings_edit_abpanel_buf_label": {
      "func": "h5",
      "arg_1": "計算範囲"
    },
    "calc_settings_edit_abpanel_buf_numinput": {
      "func": "numericInput",
      "inputId": "calc_settings_edit_abpanel_buf_numinput",
      "label": "計算範囲（km）：",
      "width": "100%",
      "value": 99,
      "step": 0.5,
      "min": 2,
      "max": 50
    },
    "calc_settings_edit_abpanel_buf_info": {
      "func": "tippy_this",
      "elementId": "calc_settings_edit_abpanel_buf_numinput",
      "tooltip": "風車から何mの範囲を計算するかを設定します。値が大きいほど計算に時間がかかります。「0」にすると自動で設定します。"
    },
    "calc_settings_edit_abpanel_precision_numinput": {
      "func": "numericInput",
      "inputId": "calc_settings_edit_abpanel_precision_numinput",
      "label": "計算精度（整数値）：",
      "width": "100%",
      "value": 99,
      "step": 1,
      "min": 1,
      "max": 10
    },
    "calc_settings_edit_abpanel_precision_info": {
      "func": "tippy_this",
      "elementId": "calc_settings_edit_abpanel_precision_numinput",
      "tooltip": "1なら250mメッシュ，2なら125mメッシュ，3なら83mメッシュ，4なら75mメッシュ，5なら50mメッシュ・・・で計算します。値が大きいほど計算に時間がかかります。"
    },
    "calc_settings_edit_abpanel_propagation_label": {
      "func": "h5",
      "arg_1": "騒音伝搬条件"
    },
    "calc_settings_edit_abpanel_temperature_numinput": {
      "func": "numericInput",
      "inputId": "calc_settings_edit_abpanel_temperature_numinput",
      "label": "気温（℃）：",
      "width": "100%",
      "value": 99,
      "step": 0.1
    },
    "calc_settings_edit_abpanel_humidity_numinput": {
      "func": "numericInput",
      "inputId": "calc_settings_edit_abpanel_humidity_numinput",
      "label": "相対湿度（%）：",
      "width": "100%",
      "value": 999,
      "step": 1,
      "min": 0,
      "max": 100
    },
    "calc_settings_edit_abpanel_atompressure_numinput": {
      "func": "numericInput",
      "inputId": "calc_settings_edit_abpanel_atompressure_numinput",
      "label": "気圧（hPa）：",
      "width": "100%",
      "value": 9999,
      "step": 0.01,
      "min": 1000,
      "max": 1020
    },
    "calc_settings_edit_abpanel_others_label": {
      "func": "h5",
      "arg_1": "その他"
    },
    "calc_settings_edit_abpanel_ground_effect_dropdown": {
      "func": "selectizeInput",
      "inputId": "calc_settings_edit_abpanel_ground_effect_dropdown",
      "label": "地表面効果",
      "choices": {
        "+6dB":"fix6dB"
      },
      "options": {
        "choices_disbled": {
          "ISO 9613-2 準拠": "ISO9613-2"
        }
      },
      "width": "100%",
      "selected": "fix6dB"
    },
    "calc_settings_edit_abpanel_ground_effect_info": {
      "func": "tippy_this",
      "elementId": "calc_settings_edit_abpanel_ground_effect_dropdown_div",
      "tooltip": "パワーレベル測定法に準拠した+6dBの地表面効果が選択されます。ISO 9613-2に準拠した計算法とは異なるため注意してください。"
    },
    "calc_settings_edit_abpanel_cylindrical_prog_check": {
      "func": "checkboxInput",
      "inputId": "calc_settings_edit_abpanel_cylindrical_prog_check",
      "label": "地表面における多重反射（円筒型経路での伝搬）",
      "width": "100%",
      "value": false
    },
    "calc_settings_edit_abpanel_cylindrical_prog_info": {
      "func": "tippy_this",
      "elementId": "calc_settings_edit_abpanel_cylindrical_prog_check",
      "tooltip": "騒音が海上で長距離（700m以上）伝搬する際に，幾何減衰量を補正します（デフォルトはオフ）。これをオンにすると，幾何減衰量が小さくなります。"
    },
    "calc_settings_edit_abpanel_interpolation_check": {
      "func": "checkboxInput",
      "inputId": "calc_settings_edit_abpanel_interpolation_check",
      "label": "格子点でのレベルを求める際に内挿を行う",
      "width": "100%",
      "value": true
    },
    "calc_settings_edit_abpanel_interpolation_info": {
      "func": "tippy_this",
      "elementId": "calc_settings_edit_abpanel_interpolation_check",
      "tooltip": "全ての格子点について音圧レベルを計算せず，線形内挿によって計算量を削減します（デフォルトはオン）。内挿を行わない方が正確ですが，コンピュータに十分なメモリを用意しておく必要があります。"
    },
    "calc_settings_edit_abpanel_cancel_btn": {
      "func": "actionButton",
      "inputId": "calc_settings_edit_abpanel_cancel_btn",
      "label": "キャンセル",
      "width": "45%",
      "icon_eval": "icon(\"window-close\")",
      "style": "text-align:left;display:inline"
    },
    "calc_settings_edit_abpanel_update_btn": {
      "func": "actionButton",
      "inputId": "calc_settings_edit_abpanel_update_btn",
      "label": "変更を適用",
      "width": "45%",
      "icon_eval": "icon(\"check\")",
      "style": "text-align:left;display:inline"
    },

    "save_label": {
      "func": "h4",
      "arg_1": "保存",
      "arg_2_eval": "tags$sup(icon(\"info-circle\"), id = \"save_info\")"
    },
    "save_info": {
      "func": "tippy_this",
      "elementId": "save_info",
      "tooltip": "「風車情報のみを保存」は風車情報のみを出力します。「風車情報・計算結果を保存」は，風車情報に加えて計算結果も保存しますが，やや時間がかかります。いずれの保存方法でも，ファイルはzip圧縮形式で保存されます。"
    },
    "save_wt_btn": {
      "func": "downloadButton",
      "outputId": "save_wt_btn",
      "label": "風車情報のみを保存",
      "style": "width:100%;text-align:left",
      "class": "btn-light"
    },
    "save_btn": {
      "func": "downloadButton",
      "outputId": "save_btn",
      "label": "計算結果を保存",
      "style": "width:100%;text-align:left",
      "class": "btn-light"
    },
    "convert_save_btn": {
      "func": "downloadButton",
      "outputId": "convert_save_btn",
      "label": "風車情報・計算結果を保存",
      "style": "width:100%;text-align:left",
      "class": "btn-light"
    },
    "load_label": {
      "func": "h4",
      "arg_1": "読込",
      "arg_2_eval": "tags$sup(icon(\"info-circle\"), id = \"load_info\")"
    },
    "load_info": {
      "func": "tippy_this",
      "elementId": "load_info",
      "tooltip": "保存したデータをソフトウェアに読み込んで利用します。詳細はマニュアルを参照してください。"
    },
    "load_fileinput": {
      "func": "fileInput",
      "inputId": "load_fileinput",
      "label": null,
      "width": "100%",
      "accept": [ "csv","json", "RDS", "RData", "gml" ],
      "buttonLabel": "開く",
      "placeholder": ".RDS / .csv / .json / .gml"
    },
    "manual_dropdown":{
      "func_eval": "tags$li",
      "class": "dropdown"
    },
    "manual_link":{
      "func_eval": "tags$a",
      "class": "manual-link",
      "href": "ja/manual/index.html",
      "target": "_blank",
      "arg_1_eval": "tags$i(class=\"fa fa-book-reader\")",
      "arg_2": "マニュアル"
    }
  }
}