[
  {
    "weight_name": "weight_A",
    "LW_data": [
		{"freq":    6.3, "freq_label": "f6"    , "weight": -85.4},
		{"freq":    8.0, "freq_label": "f8"    , "weight": -77.8},
		{"freq":   10.0, "freq_label": "f10"   , "weight": -70.4},
		{"freq":   12.5, "freq_label": "f12"   , "weight": -63.4},
		{"freq":   16.0, "freq_label": "f16"   , "weight": -56.7},
		{"freq":   20.0, "freq_label": "f20"   , "weight": -50.5},
		{"freq":   25.0, "freq_label": "f25"   , "weight": -44.7},
		{"freq":   31.5, "freq_label": "f31"   , "weight": -39.4},
		{"freq":   40.0, "freq_label": "f40"   , "weight": -34.6},
		{"freq":   50.0, "freq_label": "f50"   , "weight": -30.2},
		{"freq":   63.0, "freq_label": "f63"   , "weight": -26.2},
		{"freq":   80.0, "freq_label": "f80"   , "weight": -22.5},
		{"freq":  100.0, "freq_label": "f100"  , "weight": -19.1},
		{"freq":  125.0, "freq_label": "f125"  , "weight": -16.1},
		{"freq":  160.0, "freq_label": "f160"  , "weight": -13.4},
		{"freq":  200.0, "freq_label": "f200"  , "weight": -10.9},
		{"freq":  250.0, "freq_label": "f250"  , "weight":  -8.6},
		{"freq":  315.0, "freq_label": "f315"  , "weight":  -6.6},
		{"freq":  400.0, "freq_label": "f400"  , "weight":  -4.8},
		{"freq":  500.0, "freq_label": "f500"  , "weight":  -3.2},
		{"freq":  630.0, "freq_label": "f630"  , "weight":  -1.9},
		{"freq":  800.0, "freq_label": "f800"  , "weight":  -0.8},
		{"freq": 1000.0, "freq_label": "f1000" , "weight":   0.0},
		{"freq": 1250.0, "freq_label": "f1250" , "weight":   0.6},
		{"freq": 1600.0, "freq_label": "f1600" , "weight":   1.0},
		{"freq": 2000.0, "freq_label": "f2000" , "weight":   1.2},
		{"freq": 2500.0, "freq_label": "f2500" , "weight":   1.3},
		{"freq": 3150.0, "freq_label": "f3150" , "weight":   1.2},
		{"freq": 4000.0, "freq_label": "f4000" , "weight":   1.0},
		{"freq": 5000.0, "freq_label": "f5000" , "weight":   0.5},
		{"freq": 6300.0, "freq_label": "f6300" , "weight":  -0.1},
		{"freq": 8000.0, "freq_label": "f8000" , "weight":  -1.1},
		{"freq":10000.0, "freq_label": "f10000", "weight":  -2.5},
		{"freq":12500.0, "freq_label": "f12500" , "weight":  -4.3},
		{"freq":16000.0, "freq_label": "f16000" , "weight":  -6.6},
		{"freq":20000.0, "freq_label": "f20000" , "weight":  -9.3}
    ]
  }
]