﻿wt_id,lng,lat,hub_height,is_valid,LW_lib_id,epower,label,freq_band,freq_weight,freq,LW
Wt001,141.1296892,43.23269714,100,TRUE,Enercon-E70-2.5-MF,2500,"Id:Wt001, 発電出力:2 500 kW<br>（周波数特性：Enercon-E70-2.5-MF）",1/1oct,flat,63,115.8
Wt001,141.1296892,43.23269714,100,TRUE,Enercon-E70-2.5-MF,2500,"Id:Wt001, 発電出力:2 500 kW<br>（周波数特性：Enercon-E70-2.5-MF）",1/1oct,flat,125,112.3
Wt001,141.1296892,43.23269714,100,TRUE,Enercon-E70-2.5-MF,2500,"Id:Wt001, 発電出力:2 500 kW<br>（周波数特性：Enercon-E70-2.5-MF）",1/1oct,flat,250,107.8
Wt001,141.1296892,43.23269714,100,TRUE,Enercon-E70-2.5-MF,2500,"Id:Wt001, 発電出力:2 500 kW<br>（周波数特性：Enercon-E70-2.5-MF）",1/1oct,flat,500,102.6
Wt001,141.1296892,43.23269714,100,TRUE,Enercon-E70-2.5-MF,2500,"Id:Wt001, 発電出力:2 500 kW<br>（周波数特性：Enercon-E70-2.5-MF）",1/1oct,flat,1000,96.4
Wt001,141.1296892,43.23269714,100,TRUE,Enercon-E70-2.5-MF,2500,"Id:Wt001, 発電出力:2 500 kW<br>（周波数特性：Enercon-E70-2.5-MF）",1/1oct,flat,2000,92.2
Wt001,141.1296892,43.23269714,100,TRUE,Enercon-E70-2.5-MF,2500,"Id:Wt001, 発電出力:2 500 kW<br>（周波数特性：Enercon-E70-2.5-MF）",1/1oct,flat,4000,88.1
Wt001,141.1296892,43.23269714,100,TRUE,Enercon-E70-2.5-MF,2500,"Id:Wt001, 発電出力:2 500 kW<br>（周波数特性：Enercon-E70-2.5-MF）",1/1oct,flat,8000,85.9
Wt002,141.2395554,43.24720338,100,TRUE,Enercon-E70-2.5-MF,2500,"Id:Wt002, 発電出力:2 500 kW<br>（周波数特性：Enercon-E70-2.5-MF）",1/1oct,flat,63,115.8
Wt002,141.2395554,43.24720338,100,TRUE,Enercon-E70-2.5-MF,2500,"Id:Wt002, 発電出力:2 500 kW<br>（周波数特性：Enercon-E70-2.5-MF）",1/1oct,flat,125,112.3
Wt002,141.2395554,43.24720338,100,TRUE,Enercon-E70-2.5-MF,2500,"Id:Wt002, 発電出力:2 500 kW<br>（周波数特性：Enercon-E70-2.5-MF）",1/1oct,flat,250,107.8
Wt002,141.2395554,43.24720338,100,TRUE,Enercon-E70-2.5-MF,2500,"Id:Wt002, 発電出力:2 500 kW<br>（周波数特性：Enercon-E70-2.5-MF）",1/1oct,flat,500,102.6
Wt002,141.2395554,43.24720338,100,TRUE,Enercon-E70-2.5-MF,2500,"Id:Wt002, 発電出力:2 500 kW<br>（周波数特性：Enercon-E70-2.5-MF）",1/1oct,flat,1000,96.4
Wt002,141.2395554,43.24720338,100,TRUE,Enercon-E70-2.5-MF,2500,"Id:Wt002, 発電出力:2 500 kW<br>（周波数特性：Enercon-E70-2.5-MF）",1/1oct,flat,2000,92.2
Wt002,141.2395554,43.24720338,100,TRUE,Enercon-E70-2.5-MF,2500,"Id:Wt002, 発電出力:2 500 kW<br>（周波数特性：Enercon-E70-2.5-MF）",1/1oct,flat,4000,88.1
Wt002,141.2395554,43.24720338,100,TRUE,Enercon-E70-2.5-MF,2500,"Id:Wt002, 発電出力:2 500 kW<br>（周波数特性：Enercon-E70-2.5-MF）",1/1oct,flat,8000,85.9
Wt003,141.2903686,43.28220421,100,TRUE,Enercon-E70-2.5-MF,2500,"Id:Wt003, 発電出力:2 500 kW<br>（周波数特性：Enercon-E70-2.5-MF）",1/1oct,flat,63,115.8
Wt003,141.2903686,43.28220421,100,TRUE,Enercon-E70-2.5-MF,2500,"Id:Wt003, 発電出力:2 500 kW<br>（周波数特性：Enercon-E70-2.5-MF）",1/1oct,flat,125,112.3
Wt003,141.2903686,43.28220421,100,TRUE,Enercon-E70-2.5-MF,2500,"Id:Wt003, 発電出力:2 500 kW<br>（周波数特性：Enercon-E70-2.5-MF）",1/1oct,flat,250,107.8
Wt003,141.2903686,43.28220421,100,TRUE,Enercon-E70-2.5-MF,2500,"Id:Wt003, 発電出力:2 500 kW<br>（周波数特性：Enercon-E70-2.5-MF）",1/1oct,flat,500,102.6
Wt003,141.2903686,43.28220421,100,TRUE,Enercon-E70-2.5-MF,2500,"Id:Wt003, 発電出力:2 500 kW<br>（周波数特性：Enercon-E70-2.5-MF）",1/1oct,flat,1000,96.4
Wt003,141.2903686,43.28220421,100,TRUE,Enercon-E70-2.5-MF,2500,"Id:Wt003, 発電出力:2 500 kW<br>（周波数特性：Enercon-E70-2.5-MF）",1/1oct,flat,2000,92.2
Wt003,141.2903686,43.28220421,100,TRUE,Enercon-E70-2.5-MF,2500,"Id:Wt003, 発電出力:2 500 kW<br>（周波数特性：Enercon-E70-2.5-MF）",1/1oct,flat,4000,88.1
Wt003,141.2903686,43.28220421,100,TRUE,Enercon-E70-2.5-MF,2500,"Id:Wt003, 発電出力:2 500 kW<br>（周波数特性：Enercon-E70-2.5-MF）",1/1oct,flat,8000,85.9
