[
  {
    "id": "Wt001",
    "lng": 141.2753319,
    "lat": 43.20917969,
    "hub_height": 100,
    "is_valid": true,
    "freq_lib": "test1",
    "epower": 8000,
    "freq_data": [
      [25, 130],
      [31.5, 125],
      [40, 130],
      [50, 127],
      [63, 122],
      [80, 121],
      [100, 119],
      [125, 118],
      [160, 116],
      [200, 115],
      [250, 113],
      [315, 111],
      [400, 110],
      [500, 108],
      [630, 107],
      [800, 105],
      [1000, 104],
      [1250, 103],
      [1600, 101],
      [2000, 99]
    ]
  },
  {
    "id": "Wt002",
    "lng": 141.2382302,
    "lat": 43.18064636,
    "hub_height": 100,
    "is_valid": true,
    "freq_lib": "test2",
    "epower": 2000,
    "freq_data": [
      [100, 100],
      [125, 98],
      [160, 98],
      [200, 96],
      [250, 94],
      [315, 93],
      [400, 93],
      [500, 98],
      [630, 92],
      [800, 90],
      [1000, 88],
      [1250, 87],
      [1600, 86],
      [2000, 84]
    ]
  },
  {
    "id": "Wt003",
    "lng": 141.195632,
    "lat": 43.17163306,
    "hub_height": 100,
    "is_valid": true,
    "freq_lib": "auto",
    "epower": 8000,
    "freq_data": [
      [25, 121.86009727],
      [31.5, 120.76009727],
      [40, 119.79004271],
      [50, 118.71991588],
      [63, 117.689997],
      [80, 116.4200147],
      [100, 114.87996013],
      [125, 113.47989672],
      [160, 111.9800501],
      [200, 110.30905895],
      [250, 108.5740678],
      [315, 106.97293212],
      [400, 105.30494097],
      [500, 103.73801324],
      [630, 102.26994982],
      [800, 100.90302209],
      [1000, 99.60095867],
      [1250, 98.19903979],
      [1600, 96.73097637],
      [2000, 94.99492181],
      [2500, 92.92607519],
      [3150, 90.35495721],
      [4000, 87.28490265],
      [5000, 83.7469292],
      [6300, 79.27410028],
      [8000, 74.57197345],
      [10000, 69.39928021]
    ]
  }
]
